{
    "imgs_btn" : {
        "tianjia" : "images/huawei8c/tianjia.bmp",
        "sousuo" : "images/huawei8c/sousuo.bmp",
        "send" : "images/huawei8c/send.bmp",
        "send_img" : "images/huawei8c/send/send_img.bmp",
        "send_file" : "images/huawei8c/send/send_file.bmp",
        "fujian" : "images/huawei8c/fujian.bmp",
        "wx_words" : "images/huawei8c/wx-words.bmp",
        "circle-comment" : "images/huawei8c/dotdot.bmp",
        "circle-comment-btn" : "images/huawei8c/comment.bmp",
        "circle-like-btn" : "images/huawei8c/like.bmp",
        "comment-sure" : "images/huawei8c/comment_sure.bmp",
        "red-package" : "images/huawei8c/red-package.bmp",
        "transfer" : "images/huawei8c/transfer.bmp",
        "subcription" : "images/huawei8c/subcription.bmp",
        "public" : "images/huawei8c/public.bmp",
        "weixinhao" : "images/huawei8c/weixinhao.bmp",
        "lianxiren" : "images/huawei8c/lianxiren.bmp",
        "copy" : "images/huawei8c/copy.bmp",
        "add_friend" : "images/huawei8c/add_friend.bmp",
        "add_friend_searchbox" : "images/huawei8c/add_friend_searchbox.bmp",
        "add_friend_send" : "images/huawei8c/add_friend_send.bmp",
        "add_friend_result" : "images/huawei8c/add_friend_result.bmp",
        "add_to_contact" : "images/huawei8c/add_to_contact.bmp",
        "woman" : "images/huawei8c/woman.bmp",
        "friend_icons" : "images/huawei8c/friend_icons.bmp",
        "group_icons" : "images/huawei8c/group/group_icons.bmp",
        "group_name" : "images/huawei8c/group/group_name.bmp",
        "group_remark" : "images/huawei8c/group/group_remark.bmp",
        "create_group" : "images/huawei8c/group/create_group.bmp",
        "group_remark_sure" : "images/huawei8c/group/group_remark_sure.bmp",
        "create_group_search_result" : "images/huawei8c/group/create_group_search_result.bmp",
        "set_remarks" : "images/huawei8c/remarks/set_remarks.bmp",
        "select_all" : "images/huawei8c/remarks/select_all.bmp",
        "paste" : "images/huawei8c/remarks/paste.bmp",
        "cut" : "images/huawei8c/remarks/cut.bmp",
        "new_remark_input" : "images/huawei8c/remarks/new_remark_input.bmp",
        "remark_finish" : "images/huawei8c/remarks/remark_finish.bmp",
        "new_remarks" : "images/huawei8c/remarks/new_remarks_input.bmp",
        "del_friend" : "images/huawei8c/del_friend.bmp",
        "delete_group" : "images/huawei8c/group/delete_group.bmp",
        "save_group_to_contact" : "images/huawei8c/group/save_group_to_contact.bmp",
        "group_save_btn" : "images/huawei8c/group/group_save_btn.bmp",
        "group_list" : "images/huawei8c/group/group_list.bmp",
        "no_group" : "images/huawei8c/group/no_group.bmp",
        "groups" : "images/huawei8c/group/groups.bmp",
        "nickname" : "images/huawei8c/nickname.bmp",
        "signatrue" : "images/huawei8c/signatrue.bmp",
        "more" : "images/huawei8c/more.bmp",
        "circle" : "images/huawei8c/circle.bmp",
        "lucky_money_send" : "images/huawei8c/lucky_money_send.bmp",
        "souyisou" : "images/huawei8c/souyisou.bmp",
        "souyisou_title" : "images/huawei8c/souyisou_title.bmp"
    },
    "fixed" : {

    }
}